<svg xmlns="http://www.w3.org/2000/svg" width="50" height="44" viewBox="0 0 477 385">
  <g fill="none" fill-rule="evenodd" stroke="#000" stroke-width="20" transform="translate(36 33)">
    <polygon points="182.427 65.976 144.336 0 0 250 75.833 250 35.286 320 406 320 220.643 0"/>
    <polygon points="220.5 0 406 320 35 320"/>
  </g>
</svg>
